{
  "project_info": {
    "project_number": "900025718987",
    "firebase_url": "https://homie-proveedor-fb8a8.firebaseio.com",
    "project_id": "homie-proveedor-fb8a8",
    "storage_bucket": "homie-proveedor-fb8a8.appspot.com"
  },
  "client": [
    {
      "client_info": {
        "mobilesdk_app_id": "1:900025718987:android:5cc2b86fa885eab7",
        "android_client_info": {
          "package_name": "com.energetika.toolboycliente"
        }
      },
      "oauth_client": [
        {
          "client_id": "900025718987-55cu090334flr4hs62ea2p9kbps39pu5.apps.googleusercontent.com",
          "client_type": 3
        }
      ],
      "api_key": [
        {
          "current_key": "AIzaSyDMTYNGNEUXvlUOGQ1EYQl2HKTwHoUOWeE"
        }
      ],
      "services": {
        "appinvite_service": {
          "other_platform_oauth_client": [
            {
              "client_id": "900025718987-55cu090334flr4hs62ea2p9kbps39pu5.apps.googleusercontent.com",
              "client_type": 3
            }
          ]
        }
      }
    },
    {
      "client_info": {
        "mobilesdk_app_id": "1:900025718987:android:f9154a55847a56e5",
        "android_client_info": {
          "package_name": "com.energetika.toolboyproveedor"
        }
      },
      "oauth_client": [
        {
          "client_id": "900025718987-55cu090334flr4hs62ea2p9kbps39pu5.apps.googleusercontent.com",
          "client_type": 3
        }
      ],
      "api_key": [
        {
          "current_key": "AIzaSyDMTYNGNEUXvlUOGQ1EYQl2HKTwHoUOWeE"
        }
      ],
      "services": {
        "appinvite_service": {
          "other_platform_oauth_client": [
            {
              "client_id": "900025718987-55cu090334flr4hs62ea2p9kbps39pu5.apps.googleusercontent.com",
              "client_type": 3
            }
          ]
        }
      }
    }
  ],
  "configuration_version": "1"
}